<svg xmlns="http://www.w3.org/2000/svg" viewBox="0 0 50.809 44.084">
  <defs>
    <style>
      .cls-1 {
        fill: #2c86c2;
        fill-rule: evenodd;
      }
    </style>
  </defs>
  <g id="_6" data-name="6" transform="translate(-0.001)">
    <path id="Path_2686" data-name="Path 2686" class="cls-1" d="M49588.238,9945.85c-8.867.207-15.1,9.211-15.238,15.586v1.246c.41,5.127,4.574,7.342,9,4.848,1.039-.555,2.078-1.178,3.117-1.8a7.484,7.484,0,0,1,8.8.139,35.025,35.025,0,0,0,3.465,2.146c2.973,1.664,6.023.762,7.477-2.285a9.518,9.518,0,0,0,1.039-3.879c.215-4.432-1.941-8.035-4.777-11.223C49597.734,9946.818,49593.227,9945.709,49588.238,9945.85Z" transform="translate(-49564.547 -9924.754)"/>
    <path id="Path_2687" data-name="Path 2687" class="cls-1" d="M49605.461,9658.416c1.109-1.869,1.109-3.74,1.875-5.816v-.486a11.3,11.3,0,0,0-1.945-7c-2.84-4.156-7.895-4.156-10.8,0a12.51,12.51,0,0,0,.066,13.578C49597.637,9662.92,49602.762,9662.85,49605.461,9658.416Z" transform="translate(-49582.809 -9641.964)"/>
    <path id="Path_2688" data-name="Path 2688" class="cls-1" d="M49832.047,9658.063a11.384,11.384,0,0,0,1.945-6.512,12.074,12.074,0,0,0-1.945-6.928c-2.836-4.086-7.687-4.226-10.664-.277a12.542,12.542,0,0,0,0,13.993C49824.359,9662.357,49829.211,9662.219,49832.047,9658.063Z" transform="translate(-49793.734 -9641.471)"/>
    <path id="Path_2689" data-name="Path 2689" class="cls-1" d="M50026.484,9856.079a4.818,4.818,0,0,0-7.414.069,8.315,8.315,0,0,0-2.07,5.889v.207a13.734,13.734,0,0,0,1.664,5.2c2.008,3.047,5.742,3.116,8.1.346C50029.328,9864.668,50029.188,9858.988,50026.484,9856.079Z" transform="translate(-49977.793 -9839.625)"/>
    <path id="Path_2690" data-name="Path 2690" class="cls-1" d="M49460.906,9866.976a9.789,9.789,0,0,0,.066-10.6c-2.285-3.326-6.578-3.395-8.66.138a13.68,13.68,0,0,0-1.312,5.4,11.643,11.643,0,0,0,1.59,5.126C49454.672,9870.16,49458.617,9870.022,49460.906,9866.976Z" transform="translate(-49451 -9839.16)"/>
  </g>
</svg>
