<svg id="_1" data-name="1" xmlns="http://www.w3.org/2000/svg" viewBox="0 0 51.57 47.703">
  <defs>
    <style>
      .cls-1 {
        fill: #2c86c2;
        fill-rule: evenodd;
      }
    </style>
  </defs>
  <path id="Path_2672" data-name="Path 2672" class="cls-1" d="M4858,6099h51.57v4h-4.384c.387,1.676.774,3.223,1.16,4.964-2.771,0-5.479,0-8.122-.064-.258,0-.58-.451-.709-.773-.258-1.1-.451-2.256-.773-3.353-.129-.322-.516-.773-.773-.773h-22.5c-.387,1.676-.709,3.288-1.031,4.9h-8.9c.322-1.611.581-3.158.967-4.9H4858Z" transform="translate(-4858 -6082.112)"/>
  <path id="Path_2673" data-name="Path 2673" class="cls-1" d="M5299.225,6218.689c-.129-2.965-.258-6-.387-9.024-.258-5.222-.516-10.379-.838-15.665h5.8c.387,2.579.837,5.286,1.289,7.929.838,5.415,1.676,10.765,2.514,16.18.064.193,0,.386.064.58Z" transform="translate(-5269.637 -6170.987)"/>
  <path id="Path_2674" data-name="Path 2674" class="cls-1" d="M5101,6217.754c.709-4.577,1.354-9.154,2.128-13.794.515-3.611,1.1-7.22,1.675-10.958h5.673c-.128,3.287-.322,6.574-.452,9.8-.193,4.963-.386,9.992-.58,14.955Z" transform="translate(-5085.336 -6170.053)"/>
  <path id="Path_2675" data-name="Path 2675" class="cls-1" d="M5281.481,5837c.773,4.964,1.547,9.863,2.385,14.891H5278.9c-.257-5.028-.579-9.927-.9-14.891Z" transform="translate(-5250.926 -5837)"/>
  <path id="Path_2676" data-name="Path 2676" class="cls-1" d="M5185.544,5837c-.193,4.9-.451,9.863-.709,14.827H5180c.773-4.964,1.548-9.863,2.321-14.827Z" transform="translate(-5159.243 -5837)"/>
</svg>
