<svg xmlns="http://www.w3.org/2000/svg" viewBox="0 0 69.277 19.23">
  <defs>
    <style>
      .cls-1 {
        fill: #fff;
      }
    </style>
  </defs>
  <g id="Group_3500" data-name="Group 3500" transform="translate(-332 -1111)">
    <g id="Group_3505" data-name="Group 3505" transform="translate(381.293 1111)">
      <g id="Group_3504" data-name="Group 3504" transform="translate(0 0)">
        <path id="Path_2795" data-name="Path 2795" class="cls-1" d="M384.172,7.175a2.264,2.264,0,0,0-1.839-1.55l-4.144-.6-1.854-3.755A2.264,2.264,0,0,0,374.292,0h0a2.264,2.264,0,0,0-2.042,1.27L370.4,5.026l-4.144.6a2.278,2.278,0,0,0-1.261,3.886l3,2.922-.707,4.128a2.275,2.275,0,0,0,3.306,2.4l3.706-1.95L378,18.964a2.278,2.278,0,0,0,3.3-2.4l-.709-4.127,3-2.924A2.264,2.264,0,0,0,384.172,7.175Zm-5.624,3.479a2.277,2.277,0,0,0-.655,2.017l.6,3.494-3.138-1.649a2.277,2.277,0,0,0-2.12,0L370.1,16.167l.6-3.495a2.278,2.278,0,0,0-.656-2.016L367.5,8.183l3.509-.511a2.278,2.278,0,0,0,1.715-1.247l1.568-3.179,1.57,3.179a2.278,2.278,0,0,0,1.716,1.246l3.509.509Z" transform="translate(-364.301 0)"/>
      </g>
    </g>
    <g id="Group_3507" data-name="Group 3507" transform="translate(356.646 1111)">
      <g id="Group_3506" data-name="Group 3506" transform="translate(0 0)">
        <path id="Path_2796" data-name="Path 2796" class="cls-1" d="M202.022,7.175a2.264,2.264,0,0,0-1.839-1.55l-4.144-.6-1.854-3.755A2.264,2.264,0,0,0,192.141,0h0A2.264,2.264,0,0,0,190.1,1.27l-1.852,3.756-4.144.6a2.278,2.278,0,0,0-1.261,3.886l3,2.922-.707,4.128a2.275,2.275,0,0,0,3.306,2.4l3.706-1.95,3.707,1.948a2.278,2.278,0,0,0,3.3-2.4l-.709-4.127,3-2.924A2.264,2.264,0,0,0,202.022,7.175ZM196.4,10.654a2.277,2.277,0,0,0-.655,2.017l.6,3.494L193.2,14.516a2.277,2.277,0,0,0-2.12,0l-3.138,1.651.6-3.495a2.278,2.278,0,0,0-.656-2.016L185.35,8.183l3.508-.511a2.278,2.278,0,0,0,1.715-1.247l1.568-3.18,1.57,3.179a2.278,2.278,0,0,0,1.716,1.246l3.509.509Z" transform="translate(-182.15 0)"/>
      </g>
    </g>
    <g id="Group_3509" data-name="Group 3509" transform="translate(332 1111)">
      <g id="Group_3508" data-name="Group 3508" transform="translate(0 0)">
        <path id="Path_2797" data-name="Path 2797" class="cls-1" d="M19.871,7.175a2.264,2.264,0,0,0-1.839-1.55l-4.144-.6L12.033,1.269A2.264,2.264,0,0,0,9.991,0h0A2.264,2.264,0,0,0,7.948,1.27L6.1,5.026l-4.144.6A2.278,2.278,0,0,0,.69,9.516l3,2.922-.707,4.128a2.275,2.275,0,0,0,3.306,2.4l3.706-1.95L13.7,18.964a2.278,2.278,0,0,0,3.3-2.4L16.3,12.434l3-2.924A2.264,2.264,0,0,0,19.871,7.175Zm-5.624,3.479a2.277,2.277,0,0,0-.655,2.017l.6,3.494-3.138-1.649a2.277,2.277,0,0,0-2.12,0L5.8,16.167l.6-3.494a2.277,2.277,0,0,0-.656-2.016L3.2,8.183l3.508-.511A2.278,2.278,0,0,0,8.423,6.425l1.568-3.18,1.57,3.179A2.278,2.278,0,0,0,13.276,7.67l3.509.509Z" transform="translate(0 0)"/>
      </g>
    </g>
  </g>
</svg>
